T1	G1	T2	G2	T3	G3	T4	G4	T5	G5	T6	G6	T1	M1	M2	T2	M1	M2	T3	M1	M2	T4	M1	M2	T5	M1	M2	T6	M1	M2	QT	M1	M2	
1.28	35.00	1.55	33.00	1.88	21.00	1.98	80.00	2.51	35.00	2.61	25.00	29.66	15.43	14.23	44.96	21.83	23.13	15.06	8.13	6.93	59.53	31.66	27.86	27.66	14.53	13.13	60.06	29.53	30.53	-3677.37	-1838.61	-1838.75	
1.44	40.82	1.62	38.49	2.10	24.49	1.90	93.31	2.35	40.82	2.59	29.15	33.29	16.76	16.53	47.23	25.63	21.60	16.80	8.36	8.43	57.20	28.50	28.69	25.93	12.73	13.19	59.60	29.43	30.16	-3941.72	-1970.87	-1970.85	
1.55	47.61	1.69	44.89	2.17	28.57	1.84	108.83	2.55	47.61	2.62	34.01	35.79	17.03	18.76	49.29	26.36	22.93	17.43	8.66	8.76	55.26	25.43	29.83	28.06	14.00	14.06	60.46	29.66	30.80	-4033.44	-2016.73	-2016.71	
1.61	55.54	1.63	52.36	1.62	33.32	2.03	126.94	2.37	55.54	2.43	39.67	37.23	18.93	18.30	47.39	22.53	24.86	13.00	6.56	6.43	61.03	28.66	32.36	26.10	11.80	14.30	56.03	29.89	26.13	-4849.78	-2424.93	-2424.84	
1.36	64.78	1.61	61.08	2.03	38.86	1.94	148.07	2.34	64.78	2.68	46.27	31.50	14.76	16.73	46.79	20.86	25.93	16.26	9.56	6.70	58.26	28.93	29.33	25.76	12.56	13.19	61.66	32.79	28.86	-5785.47	-2892.72	-2892.75	
1.48	75.56	1.59	71.24	1.77	45.33	1.81	172.71	2.46	75.56	2.56	53.97	34.20	19.26	14.93	46.33	21.36	24.96	14.23	7.09	7.13	54.53	25.60	28.93	27.13	14.59	12.53	59.00	29.23	29.76	-6595.03	-3297.48	-3297.55	
1.47	88.13	1.87	83.09	1.88	52.88	1.92	201.45	2.36	88.13	2.11	62.95	33.93	16.83	17.10	54.36	27.39	26.96	15.06	8.03	7.03	57.63	27.83	29.80	26.03	13.33	12.69	48.70	23.19	25.50	-7942.73	-3971.35	-3971.37	
1.50	102.80	1.63	96.92	1.88	61.68	1.87	234.97	2.76	102.80	2.43	73.42	34.50	15.53	18.96	47.43	23.93	23.50	15.06	7.20	7.86	56.33	28.03	28.30	30.39	14.93	15.46	56.06	33.03	23.03	-8967.09	-4483.55	-4483.54	
1.47	119.90	1.60	113.05	1.97	71.94	1.90	274.07	2.44	119.90	2.72	85.64	33.93	14.59	19.33	46.43	24.83	21.60	15.76	7.83	7.93	57.26	28.13	29.13	26.93	12.46	14.46	62.56	32.86	29.69	-10471.19	-5235.61	-5235.57	
1.63	139.86	1.50	131.86	2.01	83.91	1.94	319.68	2.22	139.86	2.64	99.90	37.56	18.39	19.16	43.56	21.69	21.86	16.10	8.36	7.73	58.36	30.86	27.50	24.50	12.43	12.06	60.89	31.86	29.03	-11872.32	-5936.15	-5936.17	
1.45	163.13	1.71	153.81	2.15	97.88	1.89	372.87	2.37	163.13	2.64	116.52	33.50	16.33	17.16	49.76	24.43	25.33	17.23	8.90	8.33	57.00	29.69	27.30	26.16	13.56	12.59	60.79	29.69	31.10	-14036.68	-7018.33	-7018.34	
1.48	190.27	1.59	179.40	1.80	114.16	1.78	434.92	2.33	190.27	2.45	135.91	34.20	20.16	14.03	46.13	19.80	26.33	14.43	6.66	7.76	53.46	24.23	29.23	25.69	12.36	13.33	56.56	29.10	27.46	-16222.68	-8111.35	-8111.33	
