5
D1	1	Member_Name_1
D2	2	Member_Name_2
D3	3	Member_Name_3
D4	4	Member_Name_4
D5	5	Member_Name_5
22
T1	10	3	2.3	18	0
T2	18	9	1.3	9	0
T3	13	8	1.1	16	0
T4	18	3	4	14	0
T5	11	1	1.5	15	0
T6	16	4	1	17	0
T7	14	8	4	19	0
T8	10	6	9	14	0
T9	16	4	7	14	0
T10	15	5	3	18	0
T11	10	5	4.8	13	0
T12	11	3	1.2	17	0
T13	11	9	7	12	0
T14	15	1	6	3	0
T15	19	4	7	7	0
T16	14	4	4	5	0
T17	10	7	8	7	0
T18	17	5	2.9	14	0
T19	18	8	4	12	0
T20	13	3	5.7	6	0
T21	20	9	2	14	0
T22	13	3	1.6	11	0
2
A1	T1	T2	T3	T4	T5	T6	T7	T8	T9	T10	T11	
A2	T1	T2	T3	T4	T5	T6	T7	T8	T9	T10	T11	T12	T13	T14	T15	T16	T17	T18	T19	T20	T21	T22	
D1	T1	T2	T3	T4	T5	T6	T7	T8	T9	T10	T11	T12	T13	T14	T15	T16	T17	T18	T19	T20	T21	T22	
D2	T1	T2	T3	T4	T5	T6	T7	T8	T9	T10	T11	T12	T13	T14	T15	T16	T17	T18	T19	T20	T21	T22	
D3	T1	T2	T3	T4	T5	T6	T7	T8	T9	T10	T11	T12	T13	T14	T15	T16	T17	T18	T19	T20	T21	T22	
D4	T1	T2	T3	T4	T5	T6	T7	T8	T9	T10	T11	T12	T13	T14	T15	T16	T17	T18	T19	T20	T21	T22	
D5	T1	T2	T3	T4	T5	T6	T7	T8	T9	T10	T11	T12	T13	T14	T15	T16	T17	T18	T19	T20	T21	T22	
