T1	G1	T2	G2	T3	G3	T4	G4	T5	G5	T6	G6	T7	G7	T8	G8	T9	G9	T1	M1	M2	T2	M1	M2	T3	M1	M2	T4	M1	M2	T5	M1	M2	T6	M1	M2	T7	M1	M2	T8	M1	M2	T9	M1	M2	QT	M1	M2	
2.00	2.00	1.25	1.29	2.58	1.70	2.00	2.00	1.50	1.50	1.50	1.50	1.50	1.50	1.12	1.10	1.00	1.10	32.00	15.73	16.26	15.00	7.29	7.70	51.63	26.03	25.60	8.00	4.16	3.83	3.00	0.00	3.00	3.00	0.00	3.00	24.00	12.66	11.33	9.00	9.00	0.00	4.00	0.00	4.00	-0.81	-0.65	-0.15	
2.18	2.15	1.41	1.40	2.40	1.83	2.21	2.15	1.50	1.61	1.50	1.61	1.62	1.61	1.24	1.18	1.24	1.18	34.89	16.10	18.80	16.96	7.73	9.23	48.13	24.66	23.46	8.86	4.59	4.26	3.00	0.00	3.00	3.00	0.00	3.00	26.00	11.83	14.16	9.93	9.93	0.00	4.96	0.00	4.96	-0.42	-0.41	0.00	
2.31	2.33	1.50	1.51	2.46	1.98	2.25	2.33	1.50	1.74	1.50	1.74	1.75	1.74	1.35	1.28	1.25	1.28	37.00	18.73	18.26	18.00	8.69	9.30	49.29	24.53	24.76	9.00	4.40	4.59	3.00	0.00	3.00	3.00	0.00	3.00	28.00	14.69	13.30	10.86	10.86	0.00	5.00	0.00	5.00	0.41	-0.02	0.44	
2.50	2.51	1.61	1.63	2.31	2.14	2.50	2.51	1.94	1.88	1.89	1.88	1.87	1.88	1.37	1.38	1.25	1.38	40.00	19.36	20.63	19.33	9.46	9.86	46.29	22.46	23.83	10.00	4.83	5.16	3.89	0.00	3.89	3.79	0.00	3.79	30.00	14.63	15.36	11.00	11.00	0.00	5.00	0.00	5.00	1.39	0.76	0.63	
2.70	2.72	1.75	1.76	2.33	2.31	2.75	2.72	2.00	2.04	2.00	2.04	2.00	2.04	1.50	1.49	1.50	1.49	43.23	20.60	22.63	21.00	10.23	10.76	46.70	21.63	25.06	11.00	5.70	5.29	4.00	0.00	4.00	4.00	0.00	4.00	32.00	16.26	15.73	12.00	12.00	0.00	6.00	0.00	6.00	2.61	1.04	1.57	
2.93	2.93	1.91	1.91	2.50	2.49	3.00	2.93	2.00	2.20	2.00	2.20	2.18	2.20	1.62	1.61	1.50	1.61	47.00	23.73	23.26	23.00	11.43	11.56	50.13	24.80	25.33	12.00	6.20	5.79	4.00	0.00	4.00	4.00	0.00	4.00	35.00	17.80	17.19	13.00	13.00	0.00	6.00	0.00	6.00	2.42	1.06	1.35	
3.12	3.17	2.00	2.06	2.70	2.69	3.00	3.17	2.00	2.38	2.00	2.38	2.37	2.38	1.75	1.74	1.75	1.74	50.00	25.10	24.89	24.00	12.40	11.59	54.00	27.03	26.96	12.00	5.86	6.13	4.00	0.00	4.00	4.00	0.00	4.00	38.00	18.83	19.16	14.00	14.00	0.00	7.00	0.00	7.00	2.38	1.08	1.29	
3.39	3.42	2.16	2.22	2.90	2.91	3.25	3.42	2.50	2.57	2.50	2.57	2.56	2.57	1.87	1.88	1.75	1.88	54.33	28.69	25.63	26.00	12.96	13.03	58.00	28.86	29.13	13.00	6.66	6.33	5.00	0.00	5.00	5.00	0.00	5.00	41.00	21.30	19.69	15.00	15.00	0.00	7.00	0.00	7.00	2.58	1.10	1.47	
3.68	3.70	2.33	2.40	3.15	3.14	3.75	3.70	2.50	2.77	2.50	2.77	2.75	2.77	2.00	2.03	2.00	2.03	59.00	30.36	28.63	28.00	14.30	13.69	63.00	30.46	32.53	15.00	7.53	7.46	5.00	0.00	5.00	5.00	0.00	5.00	44.00	23.16	20.83	16.00	16.00	0.00	8.00	0.00	8.00	2.48	1.09	1.39	
4.00	3.99	2.58	2.59	3.40	3.39	4.00	3.99	3.00	2.99	3.00	2.99	3.00	2.99	2.12	2.19	2.00	2.19	64.00	32.20	31.80	31.00	16.36	14.63	68.00	34.10	33.89	16.00	8.46	7.53	6.00	0.00	6.00	6.00	0.00	6.00	48.00	24.06	23.93	17.00	17.00	0.00	8.00	0.00	8.00	2.81	1.19	1.61	
4.31	4.31	2.75	2.80	3.65	3.67	4.25	4.31	3.00	3.23	3.00	3.23	3.18	3.23	2.37	2.37	2.25	2.37	69.00	34.29	34.70	33.00	17.36	15.63	73.00	37.83	35.16	17.00	9.03	7.96	6.00	0.00	6.00	6.00	0.00	6.00	51.00	24.53	26.46	19.00	19.00	0.00	9.00	0.00	9.00	2.61	1.19	1.42	
4.62	4.66	3.00	3.03	3.95	3.96	4.50	4.66	3.50	3.49	3.50	3.49	3.32	3.49	2.50	2.56	2.50	2.56	74.00	36.63	37.36	36.00	18.89	17.10	79.00	40.06	38.93	18.00	9.03	8.96	7.00	0.00	7.00	7.00	0.00	7.00	53.20	27.86	25.33	20.00	20.00	0.00	10.00	0.00	10.00	2.62	1.06	1.56	
